2_Multi_Cycle_RISC_V/multi_cycle_RISC_V_005.sim/sim_1/behav/xsim/dump.vcd
$date
   Mon Jun 22 01:29:26 2026
$end
$version
  2018.2
$end
$timescale
  1ps
$end
$scope module tb_top $end
$var reg 1 ! clk $end
$var reg 1 " rst $end
$var wire 32 # pc [31:0] $end
$var wire 32 $ insn [31:0] $end
$var wire 32 % mem_adr [31:0] $end
$var wire 32 & mem_wd [31:0] $end
$var wire 1 ' mem_we $end
$var wire 32 ( mem_rd [31:0] $end
$scope module uut $end
$var wire 1 ) clk $end
$var wire 1 * rst $end
$var wire 32 # pc [31:0] $end
$var wire 32 $ insn [31:0] $end
$var wire 32 % mem_adr [31:0] $end
$var wire 32 & mem_wd [31:0] $end
$var wire 1 ' mem_we $end
$var wire 32 ( mem_rd [31:0] $end
$var wire 32 + mux_1_to_inst_mem [31:0] $end
$var wire 32 , pc_out [31:0] $end
$var wire 32 - extend_out [31:0] $end
$var wire 32 . inst_mem_out [31:0] $end
$var wire 32 / read_data_1_wire [31:0] $end
$var wire 32 0 read_data_2_wire [31:0] $end
$var wire 32 1 ALU_result_wire [31:0] $end
$var wire 5 2 inst_mem_to_reg_file_1 [4:0] $end
$var wire 5 3 inst_mem_to_reg_file_2 [4:0] $end
$var wire 5 4 inst_mem_to_reg_file_3 [4:0] $end
$var wire 32 5 read_data_out [31:0] $end
$var wire 32 6 old_pc_out [31:0] $end
$var wire 32 7 reg_buff_data_out_1 [31:0] $end
$var wire 32 8 reg_buff_data_out_2 [31:0] $end
$var wire 32 9 mux_2_to_ALU [31:0] $end
$var wire 32 : mux_3_to_ALU [31:0] $end
$var wire 32 ; buff_1_to_mux4 [31:0] $end
$var wire 32 < buff_2_to_mux4 [31:0] $end
$var wire 32 = mux_4_out [31:0] $end
$var wire 1 > AdrSrc $end
$var wire 1 ? PCWrite $end
$var wire 1 @ MemWrite $end
$var wire 1 A IRWrite $end
$var wire 1 B Regwrite $end
$var wire 2 C ImmSrc [1:0] $end
$var wire 2 D ALUSrcA [1:0] $end
$var wire 2 E ALUSrcB [1:0] $end
$var wire 3 F ALUControl [2:0] $end
$var wire 1 G zero_out $end
$var wire 2 H ResultSrc [1:0] $end
$var wire 7 I Op [6:0] $end
$var wire 3 J funct3 [2:0] $end
$var wire 1 K funct7_5 $end
$scope module mux_1 $end
$var reg 32 L out [31:0] $end
$var wire 1 > s $end
$var wire 32 , x [31:0] $end
$var wire 32 = y [31:0] $end
$upscope $end
$scope module pc_1 $end
$var wire 1 ) clk $end
$var wire 1 * rst $end
$var wire 1 ? PCWrite $end
$var wire 32 = pc_in [31:0] $end
$var reg 32 M pc_out [31:0] $end
$upscope $end
$scope module inst $end
$var wire 1 ) clk $end
$var wire 1 @ MemWrite $end
$var wire 32 + Adr [31:0] $end
$var wire 32 8 WD [31:0] $end
$var reg 32 N RD [31:0] $end
$upscope $end
$scope module pcold $end
$var wire 1 ) clk $end
$var wire 1 * rst $end
$var wire 1 A IRWrite $end
$var wire 32 , pc_in [31:0] $end
$var wire 32 5 inst_mem_in [31:0] $end
$var reg 32 O old_pc_out [31:0] $end
$var reg 32 P inst_mem_out [31:0] $end
$upscope $end
$scope module reg_f $end
$var wire 5 2 read_reg_num1 [4:0] $end
$var wire 5 3 read_reg_num2 [4:0] $end
$var wire 5 4 write_reg [4:0] $end
$var wire 32 = write_data [31:0] $end
$var wire 32 / read_data1 [31:0] $end
$var wire 32 0 read_data2 [31:0] $end
$var wire 1 B regwrite $end
$var wire 1 ) clock $end
$var wire 1 * reset $end
$var integer 32 Q i $end
$upscope $end
$scope module reg_ff $end
$var wire 1 ) clk $end
$var wire 1 * rst $end
$var wire 32 / RD1 [31:0] $end
$var wire 32 0 RD2 [31:0] $end
$var reg 32 R data_out_1 [31:0] $end
$var reg 32 S data_out_2 [31:0] $end
$upscope $end
$scope module mux_2 $end
$var reg 32 T out [31:0] $end
$var wire 2 D s [1:0] $end
$var wire 32 , d0 [31:0] $end
$var wire 32 6 d1 [31:0] $end
$var wire 32 7 d2 [31:0] $end
$upscope $end
$scope module imm $end
$var wire 32 . instruction [31:0] $end
$var wire 2 C ImmSrc [1:0] $end
$var reg 32 U immediate_output [31:0] $end
$upscope $end
$scope module mux_3 $end
$var reg 32 V out [31:0] $end
$var wire 2 E s [1:0] $end
$var wire 32 0 d0 [31:0] $end
$var wire 32 - d1 [31:0] $end
$var wire 32 W d2 [31:0] $end
$upscope $end
$scope module alu $end
$var wire 32 9 in1 [31:0] $end
$var wire 32 : in2 [31:0] $end
$var wire 3 F alu_control [2:0] $end
$var reg 32 X result [31:0] $end
$var reg 1 Y zero_flag $end
$upscope $end
$scope module buff_1 $end
$var wire 1 ) clk $end
$var wire 1 * rst $end
$var wire 32 5 data_in [31:0] $end
$var reg 32 Z data_out [31:0] $end
$upscope $end
$scope module buff_2 $end
$var wire 1 ) clk $end
$var wire 1 * rst $end
$var wire 32 1 data_in [31:0] $end
$var reg 32 [ data_out [31:0] $end
$upscope $end
$scope module mux_4 $end
$var reg 32 \ out [31:0] $end
$var wire 2 H s [1:0] $end
$var wire 32 < d0 [31:0] $end
$var wire 32 ; d1 [31:0] $end
$var wire 32 1 d2 [31:0] $end
$upscope $end
$scope module control_inst $end
$var wire 1 ) clk $end
$var wire 1 * rst $end
$var wire 7 I op [6:0] $end
$var wire 3 J funct3 [2:0] $end
$var wire 1 K funct7_5 $end
$var wire 1 G Zero $end
$var wire 1 ? PCWrite $end
$var wire 1 > AdrSrc $end
$var wire 1 @ MemWrite $end
$var wire 1 A IRWrite $end
$var wire 2 H ResultSrc [1:0] $end
$var wire 2 D ALUSrcA [1:0] $end
$var wire 2 E ALUSrcB [1:0] $end
$var wire 2 C ImmSrc [1:0] $end
$var wire 1 B RegWrite $end
$var wire 3 F ALUControl [2:0] $end
$var wire 1 ] PCUpdate $end
$var wire 1 ^ Branch $end
$var wire 2 _ ALUOp [1:0] $end
$scope module fsm_inst $end
$var wire 1 ) clk $end
$var wire 1 * rst $end
$var wire 7 I op [6:0] $end
$var reg 1 ` PCUpdate $end
$var reg 1 a Branch $end
$var reg 1 b RegWrite $end
$var reg 1 c MemWrite $end
$var reg 1 d IRWrite $end
$var reg 2 e ResultSrc [1:0] $end
$var reg 2 f ALUSrcA [1:0] $end
$var reg 2 g ALUSrcB [1:0] $end
$var reg 2 h ALUOp [1:0] $end
$var reg 1 i AdrSrc $end
$var reg 4 j state [3:0] $end
$var reg 4 k next_state [3:0] $end
$var parameter 4 l FETCH [3:0] $end
$var parameter 4 m DECODE [3:0] $end
$var parameter 4 n MEMADR [3:0] $end
$var parameter 4 o MEMREAD [3:0] $end
$var parameter 4 p MEMWB [3:0] $end
$var parameter 4 q MEMWRITE [3:0] $end
$var parameter 4 r EXECUTER [3:0] $end
$var parameter 4 s ALUWB [3:0] $end
$var parameter 4 t EXECUTEI [3:0] $end
$var parameter 4 u JAL [3:0] $end
$var parameter 4 v BEQ [3:0] $end
$upscope $end
$scope module ad_inst $end
$var wire 2 _ ALUOp [1:0] $end
$var wire 3 J funct3 [2:0] $end
$var wire 1 w op_5 $end
$var wire 1 K funct7_5 $end
$var reg 3 x ALUControl [2:0] $end
$upscope $end
$scope module id_inst $end
$var wire 7 I op [6:0] $end
$var reg 2 y ImmSrc [1:0] $end
$upscope $end
$upscope $end
$upscope $end
$upscope $end
$enddefinitions $end
#0
$dumpvars
0!
1"
bx #
bx $
bx %
b0 &
x'
bx (
0)
1*
bx +
bx ,
bx -
bx .
bx /
bx 0
bx 1
bx 2
bx 3
bx 4
bx 5
bx 6
b0 7
b0 8
bx 9
bx :
b0 ;
b0 <
bx =
x>
x?
x@
xA
xB
bx C
bx D
bx E
bx F
xG
bx H
bx I
bx J
xK
bx L
bx M
bx N
bx O
bx P
bx Q
b0 R
b0 S
bx T
bx U
bx V
b100 W
bx X
xY
b0 Z
b0 [
bx \
x]
x^
bx _
x`
xa
xb
xc
xd
bx e
bx f
bx g
bx h
xi
bx j
bx k
b0 l
b1 m
b10 n
b11 o
b100 p
b101 q
b110 r
b111 s
b1000 t
b1001 u
b1010 v
xw
bx x
bx y
$end
#5000
1!
b0 #
b0 $
b0 %
0'
b110000000000000111101111 (
1)
b0 +
b0 ,
b0 -
b0 .
b0 /
b0 0
b100 1
b0 2
b0 3
b0 4
b110000000000000111101111 5
b0 6
b0 9
b100 :
b100 =
0>
1?
0@
1A
0B
b0 C
b0 D
b10 E
b0 F
0G
b10 H
b0 I
b0 J
0K
b0 L
b0 M
b110000000000000111101111 N
b0 O
b0 P
b0 R
b0 S
b0 T
b0 U
b100 V
b100 X
0Y
b0 Z
b0 [
b100 \
1]
0^
b0 _
1`
0a
0b
0c
1d
b10 e
b0 f
b10 g
b0 h
0i
b0 j
b1 k
0w
b0 x
b0 y
#10000
0!
0)
#12000
0"
0*
#15000
1!
b100 #
b110000000000000111101111 $
b100 %
b100001000000100110011 (
1)
b100 +
b100 ,
b1100 -
b110000000000000111101111 .
b0 0
b1100 1
b1100 3
b11 4
b100001000000100110011 5
b1100 :
b110000000000000111101111 ;
b100 <
0?
0A
b11 C
b1 D
b1 E
0G
b0 H
b1101111 I
b100 L
b100 M
b100001000000100110011 N
b0 O
b110000000000000111101111 P
b0 R
b0 S
b0 T
b1100 U
b1100 V
b1100 X
0Y
b110000000000000111101111 Z
b100 [
b100 \
0]
0`
0a
0b
0c
0d
b0 e
b1 f
b1 g
b0 h
0i
b1 j
b1001 k
1w
b0 x
b11 y
#20000
0!
0)
#25000
1!
1)
b100 1
b100 :
b100001000000100110011 ;
b1100 <
b1100 =
1?
b1 D
b10 E
b100 L
b0 R
b0 S
b100 V
b100 X
0Y
b100001000000100110011 Z
b1100 [
b1100 \
1]
1`
0a
0b
0c
0d
b0 e
b1 f
b10 g
b0 h
0i
b1001 j
b111 k
#30000
0!
0)
#35000
1!
b1100 #
b1100 %
b10000010000011 (
1)
b1100 +
b1100 ,
b1100 1
b10000010000011 5
b1100 9
b0 :
b100 <
b100 =
0?
1B
b0 D
b0 E
b1100 L
b1100 M
b10000010000011 N
b0 R
b0 S
b1100 T
b0 V
b1100 X
0Y
b100001000000100110011 Z
b100 [
b100 \
0]
0`
0a
1b
0c
0d
b0 e
b0 f
b0 g
b0 h
0i
b111 j
b0 k
#40000
0!
0)
#45000
1!
1)
b0 /
b0 0
b10000 1
b100 :
b10000010000011 ;
b1100 <
b10000 =
1?
1A
0B
b10 E
b10 H
b1100 L
b0 R
b0 S
b100 V
b10000 X
0Y
b10000010000011 Z
b1100 [
b10000 \
1]
1`
0a
0b
0c
1d
b10 e
b0 f
b10 g
b0 h
0i
b0 j
b1 k
#50000
0!
0)
#55000
1!
b10000 #
b10000010000011 $
b10000 %
b11111110000000000000101011100011 (
1)
b10000 +
b10000 ,
b0 -
b10000010000011 .
b0 0
b1100 1
b0 3
b1 4
b11111110000000000000101011100011 5
b1100 6
b0 :
b10000 <
0?
0A
b0 C
b1 D
b1 E
b0 H
b11 I
b10 J
b10000 L
b10000 M
b11111110000000000000101011100011 N
b1100 O
b10000010000011 P
b0 R
b0 S
b1100 T
b0 U
b0 V
b1100 X
0Y
b10000010000011 Z
b10000 [
b10000 \
0]
0`
0a
0b
0c
0d
b0 e
b1 f
b1 g
b0 h
0i
b1 j
b10 k
0w
b0 x
b0 y
#60000
0!
0)
#65000
1!
1)
b0 1
b0 9
b11111110000000000000101011100011 ;
b1100 <
b1100 =
0?
b10 D
b1 E
1G
b10000 L
b0 R
b0 S
b0 T
b0 X
1Y
b11111110000000000000101011100011 Z
b1100 [
b1100 \
0`
0a
0b
0c
0d
b0 e
b10 f
b1 g
b0 h
0i
b10 j
b11 k
#70000
0!
0)
#75000
1!
b0 %
b110000000000000111101111 (
1)
b0 +
b10000 1
b110000000000000111101111 5
b10000 9
b0 <
b0 =
1>
0?
b0 D
b0 E
0G
b0 L
b110000000000000111101111 N
b0 R
b0 S
b10000 T
b0 V
b10000 X
0Y
b11111110000000000000101011100011 Z
b0 [
b0 \
0`
0a
0b
0c
0d
b0 e
b0 f
b0 g
b0 h
1i
b11 j
b100 k
#80000
0!
0)
#85000
1!
b10000 %
b11111110000000000000101011100011 (
1)
b10000 +
b11111110000000000000101011100011 5
b110000000000000111101111 ;
b10000 <
b110000000000000111101111 =
0>
1B
b1 H
b10000 L
b11111110000000000000101011100011 N
b0 R
b0 S
b110000000000000111101111 Z
b10000 [
b110000000000000111101111 \
0`
0a
1b
0c
0d
b1 e
b0 f
b0 g
b0 h
0i
b100 j
b0 k
#90000
0!
0)
#95000
1!
1)
b0 /
b0 0
b10100 1
b100 :
b11111110000000000000101011100011 ;
b10100 =
1?
1A
0B
b10 E
b10 H
b10000 L
b0 R
b0 S
b100 V
b10100 X
0Y
b11111110000000000000101011100011 Z
b10000 [
b10100 \
1]
1`
0a
0b
0c
1d
b10 e
b0 f
b10 g
b0 h
0i
b0 j
b1 k
#100000
0!
0)
#105000
1!
b10100 #
b11111110000000000000101011100011 $
b10100 %
bx (
1)
b10100 +
b10100 ,
b11111111111111111111111111110100 -
b11111110000000000000101011100011 .
b100 1
b10101 4
bx 5
b10000 6
b11111111111111111111111111110100 :
b10100 <
0?
0A
b10 C
b1 D
b1 E
b0 H
b1100011 I
b0 J
1K
b10100 L
b10100 M
bx N
b10000 O
b11111110000000000000101011100011 P
b0 R
b0 S
b10000 T
b11111111111111111111111111110100 U
b11111111111111111111111111110100 V
b100 X
0Y
b11111110000000000000101011100011 Z
b10100 [
b10100 \
0]
0`
0a
0b
0c
0d
b0 e
b1 f
b1 g
b0 h
0i
b1 j
b1010 k
1w
b0 x
b10 y
#110000
0!
0)
#115000
1!
1)
b0 1
b0 9
b0 :
bx ;
b100 <
b100 =
1?
b10 D
b0 E
b1 F
1G
b10100 L
b0 R
b0 S
b0 T
b0 V
b0 X
1Y
bx Z
b100 [
b100 \
1^
b1 _
0`
1a
0b
0c
0d
b0 e
b10 f
b0 g
b1 h
0i
b1010 j
b0 k
b1 x
#120000
0!
0)
#125000
1!
b100 #
b100 %
b100001000000100110011 (
1)
b100 +
b100 ,
b1000 1
b100001000000100110011 5
b100 9
b100 :
b0 <
b1000 =
1?
1A
b0 D
b10 E
b0 F
0G
b10 H
b100 L
b100 M
b100001000000100110011 N
b0 R
b0 S
b100 T
b100 V
b1000 X
0Y
bx Z
b0 [
b1000 \
1]
0^
b0 _
1`
0a
0b
0c
1d
b10 e
b0 f
b10 g
b0 h
0i
b0 j
b1 k
b0 x
#130000
0!
0)
#135000
1!
b1000 #
b100001000000100110011 $
b1000 %
b1000000010001000100011 (
1)
b1000 +
b1000 ,
b1 -
b100001000000100110011 .
b110000000000000111101111 /
b110000000000000111101111 0
b101 1
b1 2
b1 3
b10 4
b1000000010001000100011 5
b100 6
b1 :
b100001000000100110011 ;
b1000 <
0?
0A
b0 C
b1 D
b1 E
b0 H
b110011 I
0K
b1000 L
b1000 M
b1000000010001000100011 N
b100 O
b100001000000100110011 P
b0 R
b0 S
b100 T
b1 U
b1 V
b101 X
0Y
b100001000000100110011 Z
b1000 [
b1000 \
0]
0`
0a
0b
0c
0d
b0 e
b1 f
b1 g
b0 h
0i
b1 j
b110 k
1w
b0 x
b0 y
#140000
0!
0)
#145000
1!
b110000000000000111101111 &
1)
b1100000000000001111011110 1
b110000000000000111101111 7
b110000000000000111101111 8
b110000000000000111101111 9
b110000000000000111101111 :
b1000000010001000100011 ;
b101 <
b101 =
b10 D
b0 E
b1000 L
b110000000000000111101111 R
b110000000000000111101111 S
b110000000000000111101111 T
b110000000000000111101111 V
b1100000000000001111011110 X
0Y
b1000000010001000100011 Z
b101 [
b101 \
b10 _
0`
0a
0b
0c
0d
b0 e
b10 f
b0 g
b10 h
0i
b110 j
b111 k
b0 x
#150000
0!
0)
#155000
1!
1)
b110000000000000111110111 1
b1000 9
b1100000000000001111011110 <
b1100000000000001111011110 =
1B
b0 D
b1000 L
b110000000000000111101111 R
b110000000000000111101111 S
b1000 T
b110000000000000111110111 X
0Y
b1000000010001000100011 Z
b1100000000000001111011110 [
b1100000000000001111011110 \
b0 _
0`
0a
1b
0c
0d
b0 e
b0 f
b0 g
b0 h
0i
b111 j
b0 k
b0 x
#160000
0!
0)
#165000
1!
1)
b110000000000000111101111 /
b110000000000000111101111 0
b1100 1
b100 :
b110000000000000111110111 <
b1100 =
1?
1A
0B
b10 E
b10 H
b1000 L
b110000000000000111101111 R
b110000000000000111101111 S
b100 V
b1100 X
0Y
b1000000010001000100011 Z
b110000000000000111110111 [
b1100 \
1]
1`
0a
0b
0c
1d
b10 e
b0 f
b10 g
b0 h
0i
b0 j
b1 k
#170000
0!
0)
#175000
1!
b1100 #
b1000000010001000100011 $
b1100 %
b10000010000011 (
1)
b1100 +
b1100 ,
b100 -
b1000000010001000100011 .
b0 /
b1100000000000001111011110 0
b1100 1
b0 2
b10 3
b100 4
b10000010000011 5
b1000 6
b100 :
b1100 <
0?
0A
b1 C
b1 D
b1 E
b0 H
b100011 I
b10 J
b1100 L
b1100 M
b10000010000011 N
b1000 O
b1000000010001000100011 P
b110000000000000111101111 R
b110000000000000111101111 S
b1000 T
b100 U
b100 V
b1100 X
0Y
b1000000010001000100011 Z
b1100 [
b1100 \
0]
0`
0a
0b
0c
0d
b0 e
b1 f
b1 g
b0 h
0i
b1 j
b10 k
1w
b0 x
b1 y
#180000
0!
0)
#185000
1!
b1100000000000001111011110 &
1)
b100 1
b0 7
b1100000000000001111011110 8
b0 9
b10000010000011 ;
b10 D
b1 E
b0 R
b1100000000000001111011110 S
b0 T
b100 X
0Y
b10000010000011 Z
b1100 [
b1100 \
0`
0a
0b
0c
0d
b0 e
b10 f
b1 g
b0 h
0i
b10 j
b101 k
#190000
0!
0)
#195000
1!
b100 %
1'
b100001000000100110011 (
1)
b100 +
b1100000000000001111101010 1
b100001000000100110011 5
b1100 9
b1100000000000001111011110 :
b100 <
b100 =
1>
1@
b0 D
b0 E
b100 L
b100001000000100110011 N
b0 R
b1100000000000001111011110 S
b1100 T
b1100000000000001111011110 V
b1100000000000001111101010 X
0Y
b10000010000011 Z
b100 [
b100 \
0`
0a
0b
1c
0d
b0 e
b0 f
b0 g
b0 h
1i
b101 j
b0 k
#200000
0!
0)
#205000
1!
b1100 %
0'
b10000010000011 (
1)
b1100 +
b10000 1
b10000010000011 5
b100 :
b100001000000100110011 ;
b1100000000000001111101010 <
b10000 =
0>
1?
0@
1A
b10 E
b10 H
b1100 L
b10000010000011 N
b0 R
b1100000000000001111011110 S
b100 V
b10000 X
0Y
b100001000000100110011 Z
b1100000000000001111101010 [
b10000 \
1]
1`
0a
0b
0c
1d
b10 e
b0 f
b10 g
b0 h
0i
b0 j
b1 k
#210000
0!
0)
#215000
1!
b10000 #
b10000010000011 $
b10000 %
b11111110000000000000101011100011 (
1)
b10000 +
b10000 ,
b0 -
b10000010000011 .
b0 0
b1100 1
b0 3
b1 4
b11111110000000000000101011100011 5
b1100 6
b0 :
b10000010000011 ;
b10000 <
0?
0A
b0 C
b1 D
b1 E
b0 H
b11 I
b10000 L
b10000 M
b11111110000000000000101011100011 N
b1100 O
b10000010000011 P
b0 R
b1100000000000001111011110 S
b1100 T
b0 U
b0 V
b1100 X
0Y
b10000010000011 Z
b10000 [
b10000 \
0]
0`
0a
0b
0c
0d
b0 e
b1 f
b1 g
b0 h
0i
b1 j
b10 k
0w
b0 x
b0 y
#220000
0!
0)
#225000
1!
b0 &
1)
b0 1
b0 8
b0 9
b11111110000000000000101011100011 ;
b1100 <
b1100 =
0?
b10 D
b1 E
1G
b10000 L
b0 R
b0 S
b0 T
b0 X
1Y
b11111110000000000000101011100011 Z
b1100 [
b1100 \
0`
0a
0b
0c
0d
b0 e
b10 f
b1 g
b0 h
0i
b10 j
b11 k
#230000
0!
0)
#235000
1!
b0 %
b110000000000000111101111 (
1)
b0 +
b10000 1
b110000000000000111101111 5
b10000 9
b0 <
b0 =
1>
0?
b0 D
b0 E
0G
b0 L
b110000000000000111101111 N
b0 R
b0 S
b10000 T
b0 V
b10000 X
0Y
b11111110000000000000101011100011 Z
b0 [
b0 \
0`
0a
0b
0c
0d
b0 e
b0 f
b0 g
b0 h
1i
b11 j
b100 k
#240000
0!
0)
#245000
1!
b10000 %
b11111110000000000000101011100011 (
1)
b10000 +
b11111110000000000000101011100011 5
b110000000000000111101111 ;
b10000 <
b110000000000000111101111 =
0>
1B
b1 H
b10000 L
b11111110000000000000101011100011 N
b0 R
b0 S
b110000000000000111101111 Z
b10000 [
b110000000000000111101111 \
0`
0a
1b
0c
0d
b1 e
b0 f
b0 g
b0 h
0i
b100 j
b0 k
#250000
0!
0)
#255000
1!
1)
b10100 1
b100 :
b11111110000000000000101011100011 ;
b10100 =
1?
1A
0B
b10 E
b10 H
b10000 L
b0 R
b0 S
b100 V
b10100 X
0Y
b11111110000000000000101011100011 Z
b10000 [
b10100 \
1]
1`
0a
0b
0c
1d
b10 e
b0 f
b10 g
b0 h
0i
b0 j
b1 k
#260000
0!
0)
#265000
1!
b10100 #
b11111110000000000000101011100011 $
b10100 %
bx (
1)
b10100 +
b10100 ,
b11111111111111111111111111110100 -
b11111110000000000000101011100011 .
b100 1
b10101 4
bx 5
b10000 6
b11111111111111111111111111110100 :
b10100 <
0?
0A
b10 C
b1 D
b1 E
b0 H
b1100011 I
b0 J
1K
b10100 L
b10100 M
bx N
b10000 O
b11111110000000000000101011100011 P
b0 R
b0 S
b10000 T
b11111111111111111111111111110100 U
b11111111111111111111111111110100 V
b100 X
0Y
b11111110000000000000101011100011 Z
b10100 [
b10100 \
0]
0`
0a
0b
0c
0d
b0 e
b1 f
b1 g
b0 h
0i
b1 j
b1010 k
1w
b0 x
b10 y
#270000
0!
0)
#275000
1!
1)
b0 1
b0 9
b0 :
bx ;
b100 <
b100 =
1?
b10 D
b0 E
b1 F
1G
b10100 L
b0 R
b0 S
b0 T
b0 V
b0 X
1Y
bx Z
b100 [
b100 \
1^
b1 _
0`
1a
0b
0c
0d
b0 e
b10 f
b0 g
b1 h
0i
b1010 j
b0 k
b1 x
#280000
0!
0)
#285000
1!
b100 #
b100 %
b1100000000000001111011110 (
1)
b100 +
b100 ,
b1000 1
b1100000000000001111011110 5
b100 9
b100 :
b0 <
b1000 =
1?
1A
b0 D
b10 E
b0 F
0G
b10 H
b100 L
b100 M
b1100000000000001111011110 N
b0 R
b0 S
b100 T
b100 V
b1000 X
0Y
bx Z
b0 [
b1000 \
1]
0^
b0 _
1`
0a
0b
0c
1d
b10 e
b0 f
b10 g
b0 h
0i
b0 j
b1 k
b0 x
#290000
0!
0)
#295000
1!
b1000 #
b1100000000000001111011110 $
b1000 %
b1000000010001000100011 (
1)
b1000 +
b1000 ,
b11000 -
b1100000000000001111011110 .
b0 0
b11100 1
b11000 3
b111 4
b1000000010001000100011 5
b100 6
b11000 :
b1100000000000001111011110 ;
b1000 <
0?
0A
b0 C
b1 D
b1 E
b0 H
b1011110 I
0K
b1000 L
b1000 M
b1000000010001000100011 N
b100 O
b1100000000000001111011110 P
b0 R
b0 S
b100 T
b11000 U
b11000 V
b11100 X
0Y
b1100000000000001111011110 Z
b1000 [
b1000 \
0]
0`
0a
0b
0c
0d
b0 e
b1 f
b1 g
b0 h
0i
b1 j
b0 k
0w
b0 x
b0 y
#300000
0!
0)
#305000
1!
1)
b1100 1
b1000 9
b100 :
b1000000010001000100011 ;
b11100 <
b1100 =
1?
1A
b0 D
b10 E
b10 H
b1000 L
b0 R
b0 S
b1000 T
b100 V
b1100 X
0Y
b1000000010001000100011 Z
b11100 [
b1100 \
1]
1`
0a
0b
0c
1d
b10 e
b0 f
b10 g
b0 h
0i
b0 j
b1 k
#310000
0!
0)
#315000
1!
b1100 #
b1000000010001000100011 $
b1100 %
b10000010000011 (
1)
b1100 +
b1100 ,
b100 -
b1000000010001000100011 .
b1100000000000001111011110 0
b1100 1
b10 3
b100 4
b10000010000011 5
b1000 6
b100 :
b1100 <
0?
0A
b1 C
b1 D
b1 E
b0 H
b100011 I
b10 J
b1100 L
b1100 M
b10000010000011 N
b1000 O
b1000000010001000100011 P
b0 R
b0 S
b1000 T
b100 U
b100 V
b1100 X
0Y
b1000000010001000100011 Z
b1100 [
b1100 \
0]
0`
0a
0b
0c
0d
b0 e
b1 f
b1 g
b0 h
0i
b1 j
b10 k
1w
b0 x
b1 y
#320000
0!
0)
#325000
1!
b1100000000000001111011110 &
1)
b100 1
b1100000000000001111011110 8
b0 9
b10000010000011 ;
b10 D
b1 E
b0 R
b1100000000000001111011110 S
b0 T
b100 X
0Y
b10000010000011 Z
b1100 [
b1100 \
0`
0a
0b
0c
0d
b0 e
b10 f
b1 g
b0 h
0i
b10 j
b101 k
#330000
0!
0)
#335000
1!
b100 %
1'
b1100000000000001111011110 (
1)
b100 +
b1100000000000001111101010 1
b1100000000000001111011110 5
b1100 9
b1100000000000001111011110 :
b100 <
b100 =
1>
1@
b0 D
b0 E
b100 L
b1100000000000001111011110 N
b0 R
b1100000000000001111011110 S
b1100 T
b1100000000000001111011110 V
b1100000000000001111101010 X
0Y
b10000010000011 Z
b100 [
b100 \
0`
0a
0b
1c
0d
b0 e
b0 f
b0 g
b0 h
1i
b101 j
b0 k
#340000
0!
0)
#345000
1!
b1100 %
0'
b10000010000011 (
1)
b1100 +
b10000 1
b10000010000011 5
b100 :
b1100000000000001111011110 ;
b1100000000000001111101010 <
b10000 =
0>
1?
0@
1A
b10 E
b10 H
b1100 L
b10000010000011 N
b0 R
b1100000000000001111011110 S
b100 V
b10000 X
0Y
b1100000000000001111011110 Z
b1100000000000001111101010 [
b10000 \
1]
1`
0a
0b
0c
1d
b10 e
b0 f
b10 g
b0 h
0i
b0 j
b1 k
#350000
0!
0)
#355000
1!
b10000 #
b10000010000011 $
b10000 %
b11111110000000000000101011100011 (
1)
b10000 +
b10000 ,
b0 -
b10000010000011 .
b0 0
b1100 1
b0 3
b1 4
b11111110000000000000101011100011 5
b1100 6
b0 :
b10000010000011 ;
b10000 <
0?
0A
b0 C
b1 D
b1 E
b0 H
b11 I
b10000 L
b10000 M
b11111110000000000000101011100011 N
b1100 O
b10000010000011 P
b0 R
b1100000000000001111011110 S
b1100 T
b0 U
b0 V
b1100 X
0Y
b10000010000011 Z
b10000 [
b10000 \
0]
0`
0a
0b
0c
0d
b0 e
b1 f
b1 g
b0 h
0i
b1 j
b10 k
0w
b0 x
b0 y
#360000
0!
0)
#365000
1!
b0 &
1)
b0 1
b0 8
b0 9
b11111110000000000000101011100011 ;
b1100 <
b1100 =
0?
b10 D
b1 E
1G
b10000 L
b0 R
b0 S
b0 T
b0 X
1Y
b11111110000000000000101011100011 Z
b1100 [
b1100 \
0`
0a
0b
0c
0d
b0 e
b10 f
b1 g
b0 h
0i
b10 j
b11 k
#370000
0!
0)
#375000
1!
b0 %
b110000000000000111101111 (
1)
b0 +
b10000 1
b110000000000000111101111 5
b10000 9
b0 <
b0 =
1>
0?
b0 D
b0 E
0G
b0 L
b110000000000000111101111 N
b0 R
b0 S
b10000 T
b0 V
b10000 X
0Y
b11111110000000000000101011100011 Z
b0 [
b0 \
0`
0a
0b
0c
0d
b0 e
b0 f
b0 g
b0 h
1i
b11 j
b100 k
#380000
0!
0)
#385000
1!
b10000 %
b11111110000000000000101011100011 (
1)
b10000 +
b11111110000000000000101011100011 5
b110000000000000111101111 ;
b10000 <
b110000000000000111101111 =
0>
1B
b1 H
b10000 L
b11111110000000000000101011100011 N
b0 R
b0 S
b110000000000000111101111 Z
b10000 [
b110000000000000111101111 \
0`
0a
1b
0c
0d
b1 e
b0 f
b0 g
b0 h
0i
b100 j
b0 k
#390000
0!
0)
#395000
1!
1)
b10100 1
b100 :
b11111110000000000000101011100011 ;
b10100 =
1?
1A
0B
b10 E
b10 H
b10000 L
b0 R
b0 S
b100 V
b10100 X
0Y
b11111110000000000000101011100011 Z
b10000 [
b10100 \
1]
1`
0a
0b
0c
1d
b10 e
b0 f
b10 g
b0 h
0i
b0 j
b1 k
#400000
0!
0)
#405000
1!
b10100 #
b11111110000000000000101011100011 $
b10100 %
bx (
1)
b10100 +
b10100 ,
b11111111111111111111111111110100 -
b11111110000000000000101011100011 .
b100 1
b10101 4
bx 5
b10000 6
b11111111111111111111111111110100 :
b10100 <
0?
0A
b10 C
b1 D
b1 E
b0 H
b1100011 I
b0 J
1K
b10100 L
b10100 M
bx N
b10000 O
b11111110000000000000101011100011 P
b0 R
b0 S
b10000 T
b11111111111111111111111111110100 U
b11111111111111111111111111110100 V
b100 X
0Y
b11111110000000000000101011100011 Z
b10100 [
b10100 \
0]
0`
0a
0b
0c
0d
b0 e
b1 f
b1 g
b0 h
0i
b1 j
b1010 k
1w
b0 x
b10 y
#410000
0!
0)
#415000
1!
1)
b0 1
b0 9
b0 :
bx ;
b100 <
b100 =
1?
b10 D
b0 E
b1 F
1G
b10100 L
b0 R
b0 S
b0 T
b0 V
b0 X
1Y
bx Z
b100 [
b100 \
1^
b1 _
0`
1a
0b
0c
0d
b0 e
b10 f
b0 g
b1 h
0i
b1010 j
b0 k
b1 x
#420000
0!
0)
#425000
1!
b100 #
b100 %
b1100000000000001111011110 (
1)
b100 +
b100 ,
b1000 1
b1100000000000001111011110 5
b100 9
b100 :
b0 <
b1000 =
1?
1A
b0 D
b10 E
b0 F
0G
b10 H
b100 L
b100 M
b1100000000000001111011110 N
b0 R
b0 S
b100 T
b100 V
b1000 X
0Y
bx Z
b0 [
b1000 \
1]
0^
b0 _
1`
0a
0b
0c
1d
b10 e
b0 f
b10 g
b0 h
0i
b0 j
b1 k
b0 x
#430000
0!
0)
