2_Multi_Cycle_RISC_V/multi_cycle_RISC_V_005.sim/sim_1/behav/xsim/simulate.log
Time resolution is 1 ps
Time: 0 ns | STATE:          | PC: xxxxxxxx | INSN: xxxxxxxx | Adr: x | WD: 00000000 | RD: xxxxxxxx | x1: 00000000 | x2: 00000000 | x3: 00000000 | x4: 00000000 | Mem[100]: xxxxxx00 | Old_PC: xxxxxxxx

==========================================================================================================================
>>> STARTING NEW INSTRUCTION FETCH
==========================================================================================================================
Time: 5 ns | STATE:    FETCH | PC: 00000000 | INSN: 00000000 | Adr:   0 | WD: 00000000 | RD: 00a00093 | x1: 00000000 | x2: 00000000 | x3: 00000000 | x4: 00000000 | Mem[100]: xxxxxx00 | Old_PC: 00000000
Time: 15 ns | STATE:   DECODE | PC: 00000004 | INSN: 00a00093 | Adr:   4 | WD: 00000000 | RD: 00108133 | x1: 00000000 | x2: 00000000 | x3: 00000000 | x4: 00000000 | Mem[100]: xxxxxx00 | Old_PC: 00000000
Time: 25 ns | STATE: EXECUTEI | PC: 00000004 | INSN: 00a00093 | Adr:   4 | WD: 00000000 | RD: 00108133 | x1: 00000000 | x2: 00000000 | x3: 00000000 | x4: 00000000 | Mem[100]: xxxxxx00 | Old_PC: 00000000
Time: 35 ns | STATE:    ALUWB | PC: 00000004 | INSN: 00a00093 | Adr:   4 | WD: 00000000 | RD: 00108133 | x1: 00000000 | x2: 00000000 | x3: 00000000 | x4: 00000000 | Mem[100]: xxxxxx00 | Old_PC: 00000000

==========================================================================================================================
>>> STARTING NEW INSTRUCTION FETCH
==========================================================================================================================
Time: 45 ns | STATE:    FETCH | PC: 00000004 | INSN: 00a00093 | Adr:   4 | WD: 00000000 | RD: 00108133 | x1: 0000000a | x2: 00000000 | x3: 00000000 | x4: 00000000 | Mem[100]: xxxxxx00 | Old_PC: 00000000
Time: 55 ns | STATE:   DECODE | PC: 00000008 | INSN: 00108133 | Adr:   8 | WD: 00000000 | RD: 06202223 | x1: 0000000a | x2: 00000000 | x3: 00000000 | x4: 00000000 | Mem[100]: xxxxxx00 | Old_PC: 00000004
Time: 65 ns | STATE: EXECUTER | PC: 00000008 | INSN: 00108133 | Adr:   8 | WD: 0000000a | RD: 06202223 | x1: 0000000a | x2: 00000000 | x3: 00000000 | x4: 00000000 | Mem[100]: xxxxxx00 | Old_PC: 00000004
Time: 75 ns | STATE:    ALUWB | PC: 00000008 | INSN: 00108133 | Adr:   8 | WD: 0000000a | RD: 06202223 | x1: 0000000a | x2: 00000000 | x3: 00000000 | x4: 00000000 | Mem[100]: xxxxxx00 | Old_PC: 00000004

==========================================================================================================================
>>> STARTING NEW INSTRUCTION FETCH
==========================================================================================================================
Time: 85 ns | STATE:    FETCH | PC: 00000008 | INSN: 00108133 | Adr:   8 | WD: 0000000a | RD: 06202223 | x1: 0000000a | x2: 00000014 | x3: 00000000 | x4: 00000000 | Mem[100]: xxxxxx00 | Old_PC: 00000004
Time: 95 ns | STATE:   DECODE | PC: 0000000c | INSN: 06202223 | Adr:  12 | WD: 0000000a | RD: 06402183 | x1: 0000000a | x2: 00000014 | x3: 00000000 | x4: 00000000 | Mem[100]: xxxxxx00 | Old_PC: 00000008
Time: 105 ns | STATE:   MEMADR | PC: 0000000c | INSN: 06202223 | Adr:  12 | WD: 00000014 | RD: 06402183 | x1: 0000000a | x2: 00000014 | x3: 00000000 | x4: 00000000 | Mem[100]: xxxxxx00 | Old_PC: 00000008
Time: 115 ns | STATE: MEMWRITE | PC: 0000000c | INSN: 06202223 | Adr: 100 | WD: 00000014 | RD: xxxxxx00 | x1: 0000000a | x2: 00000014 | x3: 00000000 | x4: 00000000 | Mem[100]: xxxxxx00 | Old_PC: 00000008

==========================================================================================================================
>>> STARTING NEW INSTRUCTION FETCH
==========================================================================================================================
Time: 125 ns | STATE:    FETCH | PC: 0000000c | INSN: 06202223 | Adr:  12 | WD: 00000014 | RD: 06402183 | x1: 0000000a | x2: 00000014 | x3: 00000000 | x4: 00000000 | Mem[100]: 00000014 | Old_PC: 00000008
Time: 135 ns | STATE:   DECODE | PC: 00000010 | INSN: 06402183 | Adr:  16 | WD: 00000014 | RD: 00008463 | x1: 0000000a | x2: 00000014 | x3: 00000000 | x4: 00000000 | Mem[100]: 00000014 | Old_PC: 0000000c
Time: 145 ns | STATE:   MEMADR | PC: 00000010 | INSN: 06402183 | Adr:  16 | WD: 00000000 | RD: 00008463 | x1: 0000000a | x2: 00000014 | x3: 00000000 | x4: 00000000 | Mem[100]: 00000014 | Old_PC: 0000000c
Time: 155 ns | STATE:  MEMREAD | PC: 00000010 | INSN: 06402183 | Adr: 100 | WD: 00000000 | RD: 00000014 | x1: 0000000a | x2: 00000014 | x3: 00000000 | x4: 00000000 | Mem[100]: 00000014 | Old_PC: 0000000c
Time: 165 ns | STATE:    MEMWB | PC: 00000010 | INSN: 06402183 | Adr:  16 | WD: 00000000 | RD: 00008463 | x1: 0000000a | x2: 00000014 | x3: 00000000 | x4: 00000000 | Mem[100]: 00000014 | Old_PC: 0000000c

==========================================================================================================================
>>> STARTING NEW INSTRUCTION FETCH
==========================================================================================================================
Time: 175 ns | STATE:    FETCH | PC: 00000010 | INSN: 06402183 | Adr:  16 | WD: 00000000 | RD: 00008463 | x1: 0000000a | x2: 00000014 | x3: 00000014 | x4: 00000000 | Mem[100]: 00000014 | Old_PC: 0000000c
Time: 185 ns | STATE:   DECODE | PC: 00000014 | INSN: 00008463 | Adr:  20 | WD: 00000000 | RD: 00218463 | x1: 0000000a | x2: 00000014 | x3: 00000014 | x4: 00000000 | Mem[100]: 00000014 | Old_PC: 00000010
Time: 195 ns | STATE:      BEQ | PC: 00000014 | INSN: 00008463 | Adr:  20 | WD: 00000000 | RD: 00218463 | x1: 0000000a | x2: 00000014 | x3: 00000014 | x4: 00000000 | Mem[100]: 00000014 | Old_PC: 00000010

==========================================================================================================================
>>> STARTING NEW INSTRUCTION FETCH
==========================================================================================================================
Time: 205 ns | STATE:    FETCH | PC: 00000014 | INSN: 00008463 | Adr:  20 | WD: 00000000 | RD: 00218463 | x1: 0000000a | x2: 00000014 | x3: 00000014 | x4: 00000000 | Mem[100]: 00000014 | Old_PC: 00000010
Time: 215 ns | STATE:   DECODE | PC: 00000018 | INSN: 00218463 | Adr:  24 | WD: 00000000 | RD: 00000000 | x1: 0000000a | x2: 00000014 | x3: 00000014 | x4: 00000000 | Mem[100]: 00000014 | Old_PC: 00000014
Time: 225 ns | STATE:      BEQ | PC: 00000018 | INSN: 00218463 | Adr:  24 | WD: 00000014 | RD: 00000000 | x1: 0000000a | x2: 00000014 | x3: 00000014 | x4: 00000000 | Mem[100]: 00000014 | Old_PC: 00000014

==========================================================================================================================
>>> STARTING NEW INSTRUCTION FETCH
==========================================================================================================================
Time: 235 ns | STATE:    FETCH | PC: 0000001c | INSN: 00218463 | Adr:  28 | WD: 00000014 | RD: ff9ff26f | x1: 0000000a | x2: 00000014 | x3: 00000014 | x4: 00000000 | Mem[100]: 00000014 | Old_PC: 00000014
Time: 245 ns | STATE:   DECODE | PC: 00000020 | INSN: ff9ff26f | Adr:  32 | WD: 00000014 | RD: xxxxxxxx | x1: 0000000a | x2: 00000014 | x3: 00000014 | x4: 00000000 | Mem[100]: 00000014 | Old_PC: 0000001c
Time: 255 ns | STATE:      JAL | PC: 00000020 | INSN: ff9ff26f | Adr:  32 | WD: 00000000 | RD: xxxxxxxx | x1: 0000000a | x2: 00000014 | x3: 00000014 | x4: 00000000 | Mem[100]: 00000014 | Old_PC: 0000001c
Time: 265 ns | STATE:    ALUWB | PC: 00000014 | INSN: ff9ff26f | Adr:  20 | WD: 00000000 | RD: 00218463 | x1: 0000000a | x2: 00000014 | x3: 00000014 | x4: 00000000 | Mem[100]: 00000014 | Old_PC: 0000001c

==========================================================================================================================
>>> STARTING NEW INSTRUCTION FETCH
==========================================================================================================================
Time: 275 ns | STATE:    FETCH | PC: 00000014 | INSN: ff9ff26f | Adr:  20 | WD: 00000000 | RD: 00218463 | x1: 0000000a | x2: 00000014 | x3: 00000014 | x4: 00000020 | Mem[100]: 00000014 | Old_PC: 0000001c
Time: 285 ns | STATE:   DECODE | PC: 00000018 | INSN: 00218463 | Adr:  24 | WD: 00000000 | RD: 00000000 | x1: 0000000a | x2: 00000014 | x3: 00000014 | x4: 00000020 | Mem[100]: 00000014 | Old_PC: 00000014
Time: 295 ns | STATE:      BEQ | PC: 00000018 | INSN: 00218463 | Adr:  24 | WD: 00000014 | RD: 00000000 | x1: 0000000a | x2: 00000014 | x3: 00000014 | x4: 00000020 | Mem[100]: 00000014 | Old_PC: 00000014

==========================================================================================================================
>>> STARTING NEW INSTRUCTION FETCH
==========================================================================================================================
Time: 305 ns | STATE:    FETCH | PC: 0000001c | INSN: 00218463 | Adr:  28 | WD: 00000014 | RD: ff9ff26f | x1: 0000000a | x2: 00000014 | x3: 00000014 | x4: 00000020 | Mem[100]: 00000014 | Old_PC: 00000014
Time: 315 ns | STATE:   DECODE | PC: 00000020 | INSN: ff9ff26f | Adr:  32 | WD: 00000014 | RD: xxxxxxxx | x1: 0000000a | x2: 00000014 | x3: 00000014 | x4: 00000020 | Mem[100]: 00000014 | Old_PC: 0000001c
Time: 325 ns | STATE:      JAL | PC: 00000020 | INSN: ff9ff26f | Adr:  32 | WD: 00000000 | RD: xxxxxxxx | x1: 0000000a | x2: 00000014 | x3: 00000014 | x4: 00000020 | Mem[100]: 00000014 | Old_PC: 0000001c
Time: 335 ns | STATE:    ALUWB | PC: 00000014 | INSN: ff9ff26f | Adr:  20 | WD: 00000000 | RD: 00218463 | x1: 0000000a | x2: 00000014 | x3: 00000014 | x4: 00000020 | Mem[100]: 00000014 | Old_PC: 0000001c

==========================================================================================================================
>>> STARTING NEW INSTRUCTION FETCH
==========================================================================================================================
Time: 345 ns | STATE:    FETCH | PC: 00000014 | INSN: ff9ff26f | Adr:  20 | WD: 00000000 | RD: 00218463 | x1: 0000000a | x2: 00000014 | x3: 00000014 | x4: 00000020 | Mem[100]: 00000014 | Old_PC: 0000001c
Time: 355 ns | STATE:   DECODE | PC: 00000018 | INSN: 00218463 | Adr:  24 | WD: 00000000 | RD: 00000000 | x1: 0000000a | x2: 00000014 | x3: 00000014 | x4: 00000020 | Mem[100]: 00000014 | Old_PC: 00000014
$finish called at time : 362 ns : File "/home/pc-8/Desktop/Micro_Arch_005/multi_cycle_RISC_V_005/multi_cycle_RISC_V_005.srcs/sim_1/new/tb.sv" Line 151
