4_Branch_pred_Gshare_RISC_V/branch_pred_project.sim/sim_1/behav/xsim/simulate.log
Vivado Simulator 2018.2
Time resolution is 1 ps
--------------------------------------------------------------
Time: 20000 ns
FETCH:    PC=0x00000000  Instr=0x00300313  | GSHARE: GHR=00000000 Hash=00000000 PHT=01 PredTaken=0 PredTgt=0x00000000
DECODE:   PC=0x00000000  Instr=0x00000000  rs1= 0 rs2= 0 rd= 0
EXECUTE:  PC=0x00000000  ALUout=0x00000000  Zero=1 | MISPREDICT=0 ActualTgt=0x00000000
MEMORY:   ALUres=0x00000000  rd= 0
WRITEBACK:Result=0x00000000  RegWrite=0  rd= 0
HAZARD:   StallF=0 StallD=0 FlushD=0 FlushE=0
REGS:     t0(x5)=0x00000000  t1(x6)=0x00000000  t2(x7)=0x00000000  t3(x28)=0x00000000
--------------------------------------------------------------
Time: 30000 ns
FETCH:    PC=0x00000004  Instr=0x00400393  | GSHARE: GHR=00000000 Hash=00000001 PHT=01 PredTaken=0 PredTgt=0x00000000
DECODE:   PC=0x00000000  Instr=0x00300313  rs1= 0 rs2= 3 rd= 6
EXECUTE:  PC=0x00000000  ALUout=0x00000000  Zero=1 | MISPREDICT=0 ActualTgt=0x00000000
MEMORY:   ALUres=0x00000000  rd= 0
WRITEBACK:Result=0x00000000  RegWrite=0  rd= 0
HAZARD:   StallF=0 StallD=0 FlushD=0 FlushE=0
REGS:     t0(x5)=0x00000000  t1(x6)=0x00000000  t2(x7)=0x00000000  t3(x28)=0x00000000
--------------------------------------------------------------
Time: 40000 ns
FETCH:    PC=0x00000008  Instr=0x007302b3  | GSHARE: GHR=00000000 Hash=00000010 PHT=01 PredTaken=0 PredTgt=0x00000000
DECODE:   PC=0x00000004  Instr=0x00400393  rs1= 0 rs2= 4 rd= 7
EXECUTE:  PC=0x00000000  ALUout=0x00000003  Zero=0 | MISPREDICT=0 ActualTgt=0x00000003
MEMORY:   ALUres=0x00000000  rd= 0
WRITEBACK:Result=0x00000000  RegWrite=0  rd= 0
HAZARD:   StallF=0 StallD=0 FlushD=0 FlushE=0
REGS:     t0(x5)=0x00000000  t1(x6)=0x00000000  t2(x7)=0x00000000  t3(x28)=0x00000000
--------------------------------------------------------------
Time: 50000 ns
FETCH:    PC=0x0000000c  Instr=0x00730e33  | GSHARE: GHR=00000000 Hash=00000011 PHT=01 PredTaken=0 PredTgt=0x00000000
DECODE:   PC=0x00000008  Instr=0x007302b3  rs1= 6 rs2= 7 rd= 5
EXECUTE:  PC=0x00000004  ALUout=0x00000004  Zero=0 | MISPREDICT=0 ActualTgt=0x00000008
MEMORY:   ALUres=0x00000003  rd= 6
WRITEBACK:Result=0x00000000  RegWrite=0  rd= 0
HAZARD:   StallF=0 StallD=0 FlushD=0 FlushE=0
REGS:     t0(x5)=0x00000000  t1(x6)=0x00000000  t2(x7)=0x00000000  t3(x28)=0x00000000
--------------------------------------------------------------
Time: 60000 ns
FETCH:    PC=0x00000010  Instr=0xfe000ce3  | GSHARE: GHR=00000000 Hash=00000100 PHT=01 PredTaken=0 PredTgt=0x00000000
DECODE:   PC=0x0000000c  Instr=0x00730e33  rs1= 6 rs2= 7 rd=28
EXECUTE:  PC=0x00000008  ALUout=0x00000007  Zero=0 | MISPREDICT=0 ActualTgt=0x00000008
MEMORY:   ALUres=0x00000004  rd= 7
WRITEBACK:Result=0x00000003  RegWrite=1  rd= 6
HAZARD:   StallF=0 StallD=0 FlushD=0 FlushE=0
REGS:     t0(x5)=0x00000000  t1(x6)=0x00000000  t2(x7)=0x00000000  t3(x28)=0x00000000
--------------------------------------------------------------
Time: 70000 ns
FETCH:    PC=0x00000014  Instr=0x00000000  | GSHARE: GHR=00000000 Hash=00000101 PHT=01 PredTaken=0 PredTgt=0x00000000
DECODE:   PC=0x00000010  Instr=0xfe000ce3  rs1= 0 rs2= 0 rd=25
EXECUTE:  PC=0x0000000c  ALUout=0x00000007  Zero=0 | MISPREDICT=0 ActualTgt=0x0000000c
MEMORY:   ALUres=0x00000007  rd= 5
WRITEBACK:Result=0x00000004  RegWrite=1  rd= 7
HAZARD:   StallF=0 StallD=0 FlushD=0 FlushE=0
REGS:     t0(x5)=0x00000000  t1(x6)=0x00000003  t2(x7)=0x00000000  t3(x28)=0x00000000
--------------------------------------------------------------
Time: 80000 ns
FETCH:    PC=0x00000018  Instr=0x00000000  | GSHARE: GHR=00000000 Hash=00000110 PHT=01 PredTaken=0 PredTgt=0x00000000
DECODE:   PC=0x00000014  Instr=0x00000000  rs1= 0 rs2= 0 rd= 0
EXECUTE:  PC=0x00000010  ALUout=0x00000000  Zero=1 | MISPREDICT=1 ActualTgt=0x00000008
MEMORY:   ALUres=0x00000007  rd=28
WRITEBACK:Result=0x00000007  RegWrite=1  rd= 5
HAZARD:   StallF=0 StallD=0 FlushD=1 FlushE=1
STATS:    Branches Resolved: 1 | Mispredicts: 1 | ACCURACY: 0.00%
REGS:     t0(x5)=0x00000000  t1(x6)=0x00000003  t2(x7)=0x00000004  t3(x28)=0x00000000
--------------------------------------------------------------
Time: 90000 ns
FETCH:    PC=0x00000008  Instr=0x007302b3  | GSHARE: GHR=00000001 Hash=00000011 PHT=01 PredTaken=0 PredTgt=0x00000000
DECODE:   PC=0x00000000  Instr=0x00000000  rs1= 0 rs2= 0 rd= 0
EXECUTE:  PC=0x00000000  ALUout=0x00000000  Zero=1 | MISPREDICT=0 ActualTgt=0x00000000
MEMORY:   ALUres=0x00000000  rd=25
WRITEBACK:Result=0x00000007  RegWrite=1  rd=28
HAZARD:   StallF=0 StallD=0 FlushD=0 FlushE=0
STATS:    Branches Resolved: 1 | Mispredicts: 1 | ACCURACY: 0.00%
REGS:     t0(x5)=0x00000007  t1(x6)=0x00000003  t2(x7)=0x00000004  t3(x28)=0x00000000
--------------------------------------------------------------
Time: 100000 ns
FETCH:    PC=0x0000000c  Instr=0x00730e33  | GSHARE: GHR=00000001 Hash=00000010 PHT=01 PredTaken=0 PredTgt=0x00000000
DECODE:   PC=0x00000008  Instr=0x007302b3  rs1= 6 rs2= 7 rd= 5
EXECUTE:  PC=0x00000000  ALUout=0x00000000  Zero=1 | MISPREDICT=0 ActualTgt=0x00000000
MEMORY:   ALUres=0x00000000  rd= 0
WRITEBACK:Result=0x00000000  RegWrite=0  rd=25
HAZARD:   StallF=0 StallD=0 FlushD=0 FlushE=0
STATS:    Branches Resolved: 1 | Mispredicts: 1 | ACCURACY: 0.00%
REGS:     t0(x5)=0x00000007  t1(x6)=0x00000003  t2(x7)=0x00000004  t3(x28)=0x00000007
--------------------------------------------------------------
Time: 110000 ns
FETCH:    PC=0x00000010  Instr=0xfe000ce3  | GSHARE: GHR=00000001 Hash=00000101 PHT=01 PredTaken=0 PredTgt=0x00000000
DECODE:   PC=0x0000000c  Instr=0x00730e33  rs1= 6 rs2= 7 rd=28
EXECUTE:  PC=0x00000008  ALUout=0x00000007  Zero=0 | MISPREDICT=0 ActualTgt=0x00000008
MEMORY:   ALUres=0x00000000  rd= 0
WRITEBACK:Result=0x00000000  RegWrite=0  rd= 0
HAZARD:   StallF=0 StallD=0 FlushD=0 FlushE=0
STATS:    Branches Resolved: 1 | Mispredicts: 1 | ACCURACY: 0.00%
REGS:     t0(x5)=0x00000007  t1(x6)=0x00000003  t2(x7)=0x00000004  t3(x28)=0x00000007
--------------------------------------------------------------
Time: 120000 ns
FETCH:    PC=0x00000014  Instr=0x00000000  | GSHARE: GHR=00000001 Hash=00000100 PHT=10 PredTaken=0 PredTgt=0x00000000
DECODE:   PC=0x00000010  Instr=0xfe000ce3  rs1= 0 rs2= 0 rd=25
EXECUTE:  PC=0x0000000c  ALUout=0x00000007  Zero=0 | MISPREDICT=0 ActualTgt=0x0000000c
MEMORY:   ALUres=0x00000007  rd= 5
WRITEBACK:Result=0x00000000  RegWrite=0  rd= 0
HAZARD:   StallF=0 StallD=0 FlushD=0 FlushE=0
STATS:    Branches Resolved: 1 | Mispredicts: 1 | ACCURACY: 0.00%
REGS:     t0(x5)=0x00000007  t1(x6)=0x00000003  t2(x7)=0x00000004  t3(x28)=0x00000007
--------------------------------------------------------------
Time: 130000 ns
FETCH:    PC=0x00000018  Instr=0x00000000  | GSHARE: GHR=00000001 Hash=00000111 PHT=01 PredTaken=0 PredTgt=0x00000000
DECODE:   PC=0x00000014  Instr=0x00000000  rs1= 0 rs2= 0 rd= 0
EXECUTE:  PC=0x00000010  ALUout=0x00000000  Zero=1 | MISPREDICT=1 ActualTgt=0x00000008
MEMORY:   ALUres=0x00000007  rd=28
WRITEBACK:Result=0x00000007  RegWrite=1  rd= 5
HAZARD:   StallF=0 StallD=0 FlushD=1 FlushE=1
STATS:    Branches Resolved: 2 | Mispredicts: 2 | ACCURACY: 0.00%
REGS:     t0(x5)=0x00000007  t1(x6)=0x00000003  t2(x7)=0x00000004  t3(x28)=0x00000007
--------------------------------------------------------------
Time: 140000 ns
FETCH:    PC=0x00000008  Instr=0x007302b3  | GSHARE: GHR=00000011 Hash=00000001 PHT=01 PredTaken=0 PredTgt=0x00000000
DECODE:   PC=0x00000000  Instr=0x00000000  rs1= 0 rs2= 0 rd= 0
EXECUTE:  PC=0x00000000  ALUout=0x00000000  Zero=1 | MISPREDICT=0 ActualTgt=0x00000000
MEMORY:   ALUres=0x00000000  rd=25
WRITEBACK:Result=0x00000007  RegWrite=1  rd=28
HAZARD:   StallF=0 StallD=0 FlushD=0 FlushE=0
STATS:    Branches Resolved: 2 | Mispredicts: 2 | ACCURACY: 0.00%
REGS:     t0(x5)=0x00000007  t1(x6)=0x00000003  t2(x7)=0x00000004  t3(x28)=0x00000007
--------------------------------------------------------------
Time: 150000 ns
FETCH:    PC=0x0000000c  Instr=0x00730e33  | GSHARE: GHR=00000011 Hash=00000000 PHT=01 PredTaken=0 PredTgt=0x00000000
DECODE:   PC=0x00000008  Instr=0x007302b3  rs1= 6 rs2= 7 rd= 5
EXECUTE:  PC=0x00000000  ALUout=0x00000000  Zero=1 | MISPREDICT=0 ActualTgt=0x00000000
MEMORY:   ALUres=0x00000000  rd= 0
WRITEBACK:Result=0x00000000  RegWrite=0  rd=25
HAZARD:   StallF=0 StallD=0 FlushD=0 FlushE=0
STATS:    Branches Resolved: 2 | Mispredicts: 2 | ACCURACY: 0.00%
REGS:     t0(x5)=0x00000007  t1(x6)=0x00000003  t2(x7)=0x00000004  t3(x28)=0x00000007
--------------------------------------------------------------
Time: 160000 ns
FETCH:    PC=0x00000010  Instr=0xfe000ce3  | GSHARE: GHR=00000011 Hash=00000111 PHT=01 PredTaken=0 PredTgt=0x00000000
DECODE:   PC=0x0000000c  Instr=0x00730e33  rs1= 6 rs2= 7 rd=28
EXECUTE:  PC=0x00000008  ALUout=0x00000007  Zero=0 | MISPREDICT=0 ActualTgt=0x00000008
MEMORY:   ALUres=0x00000000  rd= 0
WRITEBACK:Result=0x00000000  RegWrite=0  rd= 0
HAZARD:   StallF=0 StallD=0 FlushD=0 FlushE=0
STATS:    Branches Resolved: 2 | Mispredicts: 2 | ACCURACY: 0.00%
REGS:     t0(x5)=0x00000007  t1(x6)=0x00000003  t2(x7)=0x00000004  t3(x28)=0x00000007
--------------------------------------------------------------
Time: 170000 ns
FETCH:    PC=0x00000014  Instr=0x00000000  | GSHARE: GHR=00000011 Hash=00000110 PHT=01 PredTaken=0 PredTgt=0x00000000
DECODE:   PC=0x00000010  Instr=0xfe000ce3  rs1= 0 rs2= 0 rd=25
EXECUTE:  PC=0x0000000c  ALUout=0x00000007  Zero=0 | MISPREDICT=0 ActualTgt=0x0000000c
MEMORY:   ALUres=0x00000007  rd= 5
WRITEBACK:Result=0x00000000  RegWrite=0  rd= 0
HAZARD:   StallF=0 StallD=0 FlushD=0 FlushE=0
STATS:    Branches Resolved: 2 | Mispredicts: 2 | ACCURACY: 0.00%
REGS:     t0(x5)=0x00000007  t1(x6)=0x00000003  t2(x7)=0x00000004  t3(x28)=0x00000007
--------------------------------------------------------------
Time: 180000 ns
FETCH:    PC=0x00000018  Instr=0x00000000  | GSHARE: GHR=00000011 Hash=00000101 PHT=10 PredTaken=0 PredTgt=0x00000000
DECODE:   PC=0x00000014  Instr=0x00000000  rs1= 0 rs2= 0 rd= 0
EXECUTE:  PC=0x00000010  ALUout=0x00000000  Zero=1 | MISPREDICT=1 ActualTgt=0x00000008
MEMORY:   ALUres=0x00000007  rd=28
WRITEBACK:Result=0x00000007  RegWrite=1  rd= 5
HAZARD:   StallF=0 StallD=0 FlushD=1 FlushE=1
STATS:    Branches Resolved: 3 | Mispredicts: 3 | ACCURACY: 0.00%
REGS:     t0(x5)=0x00000007  t1(x6)=0x00000003  t2(x7)=0x00000004  t3(x28)=0x00000007
--------------------------------------------------------------
Time: 190000 ns
FETCH:    PC=0x00000008  Instr=0x007302b3  | GSHARE: GHR=00000111 Hash=00000101 PHT=10 PredTaken=0 PredTgt=0x00000000
DECODE:   PC=0x00000000  Instr=0x00000000  rs1= 0 rs2= 0 rd= 0
EXECUTE:  PC=0x00000000  ALUout=0x00000000  Zero=1 | MISPREDICT=0 ActualTgt=0x00000000
MEMORY:   ALUres=0x00000000  rd=25
WRITEBACK:Result=0x00000007  RegWrite=1  rd=28
HAZARD:   StallF=0 StallD=0 FlushD=0 FlushE=0
STATS:    Branches Resolved: 3 | Mispredicts: 3 | ACCURACY: 0.00%
REGS:     t0(x5)=0x00000007  t1(x6)=0x00000003  t2(x7)=0x00000004  t3(x28)=0x00000007
--------------------------------------------------------------
Time: 200000 ns
FETCH:    PC=0x0000000c  Instr=0x00730e33  | GSHARE: GHR=00000111 Hash=00000100 PHT=10 PredTaken=0 PredTgt=0x00000000
DECODE:   PC=0x00000008  Instr=0x007302b3  rs1= 6 rs2= 7 rd= 5
EXECUTE:  PC=0x00000000  ALUout=0x00000000  Zero=1 | MISPREDICT=0 ActualTgt=0x00000000
MEMORY:   ALUres=0x00000000  rd= 0
WRITEBACK:Result=0x00000000  RegWrite=0  rd=25
HAZARD:   StallF=0 StallD=0 FlushD=0 FlushE=0
STATS:    Branches Resolved: 3 | Mispredicts: 3 | ACCURACY: 0.00%
REGS:     t0(x5)=0x00000007  t1(x6)=0x00000003  t2(x7)=0x00000004  t3(x28)=0x00000007
--------------------------------------------------------------
Time: 210000 ns
FETCH:    PC=0x00000010  Instr=0xfe000ce3  | GSHARE: GHR=00000111 Hash=00000011 PHT=01 PredTaken=0 PredTgt=0x00000000
DECODE:   PC=0x0000000c  Instr=0x00730e33  rs1= 6 rs2= 7 rd=28
EXECUTE:  PC=0x00000008  ALUout=0x00000007  Zero=0 | MISPREDICT=0 ActualTgt=0x00000008
MEMORY:   ALUres=0x00000000  rd= 0
WRITEBACK:Result=0x00000000  RegWrite=0  rd= 0
HAZARD:   StallF=0 StallD=0 FlushD=0 FlushE=0
STATS:    Branches Resolved: 3 | Mispredicts: 3 | ACCURACY: 0.00%
REGS:     t0(x5)=0x00000007  t1(x6)=0x00000003  t2(x7)=0x00000004  t3(x28)=0x00000007
--------------------------------------------------------------
Time: 220000 ns
FETCH:    PC=0x00000014  Instr=0x00000000  | GSHARE: GHR=00000111 Hash=00000010 PHT=01 PredTaken=0 PredTgt=0x00000000
DECODE:   PC=0x00000010  Instr=0xfe000ce3  rs1= 0 rs2= 0 rd=25
EXECUTE:  PC=0x0000000c  ALUout=0x00000007  Zero=0 | MISPREDICT=0 ActualTgt=0x0000000c
MEMORY:   ALUres=0x00000007  rd= 5
WRITEBACK:Result=0x00000000  RegWrite=0  rd= 0
HAZARD:   StallF=0 StallD=0 FlushD=0 FlushE=0
STATS:    Branches Resolved: 3 | Mispredicts: 3 | ACCURACY: 0.00%
REGS:     t0(x5)=0x00000007  t1(x6)=0x00000003  t2(x7)=0x00000004  t3(x28)=0x00000007
--------------------------------------------------------------
Time: 230000 ns
FETCH:    PC=0x00000018  Instr=0x00000000  | GSHARE: GHR=00000111 Hash=00000001 PHT=01 PredTaken=0 PredTgt=0x00000000
DECODE:   PC=0x00000014  Instr=0x00000000  rs1= 0 rs2= 0 rd= 0
EXECUTE:  PC=0x00000010  ALUout=0x00000000  Zero=1 | MISPREDICT=1 ActualTgt=0x00000008
MEMORY:   ALUres=0x00000007  rd=28
WRITEBACK:Result=0x00000007  RegWrite=1  rd= 5
HAZARD:   StallF=0 StallD=0 FlushD=1 FlushE=1
STATS:    Branches Resolved: 4 | Mispredicts: 4 | ACCURACY: 0.00%
REGS:     t0(x5)=0x00000007  t1(x6)=0x00000003  t2(x7)=0x00000004  t3(x28)=0x00000007
--------------------------------------------------------------
Time: 240000 ns
FETCH:    PC=0x00000008  Instr=0x007302b3  | GSHARE: GHR=00001111 Hash=00001101 PHT=01 PredTaken=0 PredTgt=0x00000000
DECODE:   PC=0x00000000  Instr=0x00000000  rs1= 0 rs2= 0 rd= 0
EXECUTE:  PC=0x00000000  ALUout=0x00000000  Zero=1 | MISPREDICT=0 ActualTgt=0x00000000
MEMORY:   ALUres=0x00000000  rd=25
WRITEBACK:Result=0x00000007  RegWrite=1  rd=28
HAZARD:   StallF=0 StallD=0 FlushD=0 FlushE=0
STATS:    Branches Resolved: 4 | Mispredicts: 4 | ACCURACY: 0.00%
REGS:     t0(x5)=0x00000007  t1(x6)=0x00000003  t2(x7)=0x00000004  t3(x28)=0x00000007
--------------------------------------------------------------
Time: 250000 ns
FETCH:    PC=0x0000000c  Instr=0x00730e33  | GSHARE: GHR=00001111 Hash=00001100 PHT=01 PredTaken=0 PredTgt=0x00000000
DECODE:   PC=0x00000008  Instr=0x007302b3  rs1= 6 rs2= 7 rd= 5
EXECUTE:  PC=0x00000000  ALUout=0x00000000  Zero=1 | MISPREDICT=0 ActualTgt=0x00000000
MEMORY:   ALUres=0x00000000  rd= 0
WRITEBACK:Result=0x00000000  RegWrite=0  rd=25
HAZARD:   StallF=0 StallD=0 FlushD=0 FlushE=0
STATS:    Branches Resolved: 4 | Mispredicts: 4 | ACCURACY: 0.00%
REGS:     t0(x5)=0x00000007  t1(x6)=0x00000003  t2(x7)=0x00000004  t3(x28)=0x00000007
--------------------------------------------------------------
Time: 260000 ns
FETCH:    PC=0x00000010  Instr=0xfe000ce3  | GSHARE: GHR=00001111 Hash=00001011 PHT=01 PredTaken=0 PredTgt=0x00000000
DECODE:   PC=0x0000000c  Instr=0x00730e33  rs1= 6 rs2= 7 rd=28
EXECUTE:  PC=0x00000008  ALUout=0x00000007  Zero=0 | MISPREDICT=0 ActualTgt=0x00000008
MEMORY:   ALUres=0x00000000  rd= 0
WRITEBACK:Result=0x00000000  RegWrite=0  rd= 0
HAZARD:   StallF=0 StallD=0 FlushD=0 FlushE=0
STATS:    Branches Resolved: 4 | Mispredicts: 4 | ACCURACY: 0.00%
REGS:     t0(x5)=0x00000007  t1(x6)=0x00000003  t2(x7)=0x00000004  t3(x28)=0x00000007
--------------------------------------------------------------
Time: 270000 ns
FETCH:    PC=0x00000014  Instr=0x00000000  | GSHARE: GHR=00001111 Hash=00001010 PHT=01 PredTaken=0 PredTgt=0x00000000
DECODE:   PC=0x00000010  Instr=0xfe000ce3  rs1= 0 rs2= 0 rd=25
EXECUTE:  PC=0x0000000c  ALUout=0x00000007  Zero=0 | MISPREDICT=0 ActualTgt=0x0000000c
MEMORY:   ALUres=0x00000007  rd= 5
WRITEBACK:Result=0x00000000  RegWrite=0  rd= 0
HAZARD:   StallF=0 StallD=0 FlushD=0 FlushE=0
STATS:    Branches Resolved: 4 | Mispredicts: 4 | ACCURACY: 0.00%
REGS:     t0(x5)=0x00000007  t1(x6)=0x00000003  t2(x7)=0x00000004  t3(x28)=0x00000007
--------------------------------------------------------------
Time: 280000 ns
FETCH:    PC=0x00000018  Instr=0x00000000  | GSHARE: GHR=00001111 Hash=00001001 PHT=01 PredTaken=0 PredTgt=0x00000000
DECODE:   PC=0x00000014  Instr=0x00000000  rs1= 0 rs2= 0 rd= 0
EXECUTE:  PC=0x00000010  ALUout=0x00000000  Zero=1 | MISPREDICT=1 ActualTgt=0x00000008
MEMORY:   ALUres=0x00000007  rd=28
WRITEBACK:Result=0x00000007  RegWrite=1  rd= 5
HAZARD:   StallF=0 StallD=0 FlushD=1 FlushE=1
STATS:    Branches Resolved: 5 | Mispredicts: 5 | ACCURACY: 0.00%
REGS:     t0(x5)=0x00000007  t1(x6)=0x00000003  t2(x7)=0x00000004  t3(x28)=0x00000007
--------------------------------------------------------------
Time: 290000 ns
FETCH:    PC=0x00000008  Instr=0x007302b3  | GSHARE: GHR=00011111 Hash=00011101 PHT=01 PredTaken=0 PredTgt=0x00000000
DECODE:   PC=0x00000000  Instr=0x00000000  rs1= 0 rs2= 0 rd= 0
EXECUTE:  PC=0x00000000  ALUout=0x00000000  Zero=1 | MISPREDICT=0 ActualTgt=0x00000000
MEMORY:   ALUres=0x00000000  rd=25
WRITEBACK:Result=0x00000007  RegWrite=1  rd=28
HAZARD:   StallF=0 StallD=0 FlushD=0 FlushE=0
STATS:    Branches Resolved: 5 | Mispredicts: 5 | ACCURACY: 0.00%
REGS:     t0(x5)=0x00000007  t1(x6)=0x00000003  t2(x7)=0x00000004  t3(x28)=0x00000007
--------------------------------------------------------------
Time: 300000 ns
FETCH:    PC=0x0000000c  Instr=0x00730e33  | GSHARE: GHR=00011111 Hash=00011100 PHT=01 PredTaken=0 PredTgt=0x00000000
DECODE:   PC=0x00000008  Instr=0x007302b3  rs1= 6 rs2= 7 rd= 5
EXECUTE:  PC=0x00000000  ALUout=0x00000000  Zero=1 | MISPREDICT=0 ActualTgt=0x00000000
MEMORY:   ALUres=0x00000000  rd= 0
WRITEBACK:Result=0x00000000  RegWrite=0  rd=25
HAZARD:   StallF=0 StallD=0 FlushD=0 FlushE=0
STATS:    Branches Resolved: 5 | Mispredicts: 5 | ACCURACY: 0.00%
REGS:     t0(x5)=0x00000007  t1(x6)=0x00000003  t2(x7)=0x00000004  t3(x28)=0x00000007
--------------------------------------------------------------
Time: 310000 ns
FETCH:    PC=0x00000010  Instr=0xfe000ce3  | GSHARE: GHR=00011111 Hash=00011011 PHT=01 PredTaken=0 PredTgt=0x00000000
DECODE:   PC=0x0000000c  Instr=0x00730e33  rs1= 6 rs2= 7 rd=28
EXECUTE:  PC=0x00000008  ALUout=0x00000007  Zero=0 | MISPREDICT=0 ActualTgt=0x00000008
MEMORY:   ALUres=0x00000000  rd= 0
WRITEBACK:Result=0x00000000  RegWrite=0  rd= 0
HAZARD:   StallF=0 StallD=0 FlushD=0 FlushE=0
STATS:    Branches Resolved: 5 | Mispredicts: 5 | ACCURACY: 0.00%
REGS:     t0(x5)=0x00000007  t1(x6)=0x00000003  t2(x7)=0x00000004  t3(x28)=0x00000007
--------------------------------------------------------------
Time: 320000 ns
FETCH:    PC=0x00000014  Instr=0x00000000  | GSHARE: GHR=00011111 Hash=00011010 PHT=01 PredTaken=0 PredTgt=0x00000000
DECODE:   PC=0x00000010  Instr=0xfe000ce3  rs1= 0 rs2= 0 rd=25
EXECUTE:  PC=0x0000000c  ALUout=0x00000007  Zero=0 | MISPREDICT=0 ActualTgt=0x0000000c
MEMORY:   ALUres=0x00000007  rd= 5
WRITEBACK:Result=0x00000000  RegWrite=0  rd= 0
HAZARD:   StallF=0 StallD=0 FlushD=0 FlushE=0
STATS:    Branches Resolved: 5 | Mispredicts: 5 | ACCURACY: 0.00%
REGS:     t0(x5)=0x00000007  t1(x6)=0x00000003  t2(x7)=0x00000004  t3(x28)=0x00000007
--------------------------------------------------------------
Time: 330000 ns
FETCH:    PC=0x00000018  Instr=0x00000000  | GSHARE: GHR=00011111 Hash=00011001 PHT=01 PredTaken=0 PredTgt=0x00000000
DECODE:   PC=0x00000014  Instr=0x00000000  rs1= 0 rs2= 0 rd= 0
EXECUTE:  PC=0x00000010  ALUout=0x00000000  Zero=1 | MISPREDICT=1 ActualTgt=0x00000008
MEMORY:   ALUres=0x00000007  rd=28
WRITEBACK:Result=0x00000007  RegWrite=1  rd= 5
HAZARD:   StallF=0 StallD=0 FlushD=1 FlushE=1
STATS:    Branches Resolved: 6 | Mispredicts: 6 | ACCURACY: 0.00%
REGS:     t0(x5)=0x00000007  t1(x6)=0x00000003  t2(x7)=0x00000004  t3(x28)=0x00000007
--------------------------------------------------------------
Time: 340000 ns
FETCH:    PC=0x00000008  Instr=0x007302b3  | GSHARE: GHR=00111111 Hash=00111101 PHT=01 PredTaken=0 PredTgt=0x00000000
DECODE:   PC=0x00000000  Instr=0x00000000  rs1= 0 rs2= 0 rd= 0
EXECUTE:  PC=0x00000000  ALUout=0x00000000  Zero=1 | MISPREDICT=0 ActualTgt=0x00000000
MEMORY:   ALUres=0x00000000  rd=25
WRITEBACK:Result=0x00000007  RegWrite=1  rd=28
HAZARD:   StallF=0 StallD=0 FlushD=0 FlushE=0
STATS:    Branches Resolved: 6 | Mispredicts: 6 | ACCURACY: 0.00%
REGS:     t0(x5)=0x00000007  t1(x6)=0x00000003  t2(x7)=0x00000004  t3(x28)=0x00000007
--------------------------------------------------------------
Time: 350000 ns
FETCH:    PC=0x0000000c  Instr=0x00730e33  | GSHARE: GHR=00111111 Hash=00111100 PHT=01 PredTaken=0 PredTgt=0x00000000
DECODE:   PC=0x00000008  Instr=0x007302b3  rs1= 6 rs2= 7 rd= 5
EXECUTE:  PC=0x00000000  ALUout=0x00000000  Zero=1 | MISPREDICT=0 ActualTgt=0x00000000
MEMORY:   ALUres=0x00000000  rd= 0
WRITEBACK:Result=0x00000000  RegWrite=0  rd=25
HAZARD:   StallF=0 StallD=0 FlushD=0 FlushE=0
STATS:    Branches Resolved: 6 | Mispredicts: 6 | ACCURACY: 0.00%
REGS:     t0(x5)=0x00000007  t1(x6)=0x00000003  t2(x7)=0x00000004  t3(x28)=0x00000007
--------------------------------------------------------------
Time: 360000 ns
FETCH:    PC=0x00000010  Instr=0xfe000ce3  | GSHARE: GHR=00111111 Hash=00111011 PHT=01 PredTaken=0 PredTgt=0x00000000
DECODE:   PC=0x0000000c  Instr=0x00730e33  rs1= 6 rs2= 7 rd=28
EXECUTE:  PC=0x00000008  ALUout=0x00000007  Zero=0 | MISPREDICT=0 ActualTgt=0x00000008
MEMORY:   ALUres=0x00000000  rd= 0
WRITEBACK:Result=0x00000000  RegWrite=0  rd= 0
HAZARD:   StallF=0 StallD=0 FlushD=0 FlushE=0
STATS:    Branches Resolved: 6 | Mispredicts: 6 | ACCURACY: 0.00%
REGS:     t0(x5)=0x00000007  t1(x6)=0x00000003  t2(x7)=0x00000004  t3(x28)=0x00000007
--------------------------------------------------------------
Time: 370000 ns
FETCH:    PC=0x00000014  Instr=0x00000000  | GSHARE: GHR=00111111 Hash=00111010 PHT=01 PredTaken=0 PredTgt=0x00000000
DECODE:   PC=0x00000010  Instr=0xfe000ce3  rs1= 0 rs2= 0 rd=25
EXECUTE:  PC=0x0000000c  ALUout=0x00000007  Zero=0 | MISPREDICT=0 ActualTgt=0x0000000c
MEMORY:   ALUres=0x00000007  rd= 5
WRITEBACK:Result=0x00000000  RegWrite=0  rd= 0
HAZARD:   StallF=0 StallD=0 FlushD=0 FlushE=0
STATS:    Branches Resolved: 6 | Mispredicts: 6 | ACCURACY: 0.00%
REGS:     t0(x5)=0x00000007  t1(x6)=0x00000003  t2(x7)=0x00000004  t3(x28)=0x00000007
--------------------------------------------------------------
Time: 380000 ns
FETCH:    PC=0x00000018  Instr=0x00000000  | GSHARE: GHR=00111111 Hash=00111001 PHT=01 PredTaken=0 PredTgt=0x00000000
DECODE:   PC=0x00000014  Instr=0x00000000  rs1= 0 rs2= 0 rd= 0
EXECUTE:  PC=0x00000010  ALUout=0x00000000  Zero=1 | MISPREDICT=1 ActualTgt=0x00000008
MEMORY:   ALUres=0x00000007  rd=28
WRITEBACK:Result=0x00000007  RegWrite=1  rd= 5
HAZARD:   StallF=0 StallD=0 FlushD=1 FlushE=1
STATS:    Branches Resolved: 7 | Mispredicts: 7 | ACCURACY: 0.00%
REGS:     t0(x5)=0x00000007  t1(x6)=0x00000003  t2(x7)=0x00000004  t3(x28)=0x00000007
--------------------------------------------------------------
Time: 390000 ns
FETCH:    PC=0x00000008  Instr=0x007302b3  | GSHARE: GHR=01111111 Hash=01111101 PHT=01 PredTaken=0 PredTgt=0x00000000
DECODE:   PC=0x00000000  Instr=0x00000000  rs1= 0 rs2= 0 rd= 0
EXECUTE:  PC=0x00000000  ALUout=0x00000000  Zero=1 | MISPREDICT=0 ActualTgt=0x00000000
MEMORY:   ALUres=0x00000000  rd=25
WRITEBACK:Result=0x00000007  RegWrite=1  rd=28
HAZARD:   StallF=0 StallD=0 FlushD=0 FlushE=0
STATS:    Branches Resolved: 7 | Mispredicts: 7 | ACCURACY: 0.00%
REGS:     t0(x5)=0x00000007  t1(x6)=0x00000003  t2(x7)=0x00000004  t3(x28)=0x00000007
--------------------------------------------------------------
Time: 400000 ns
FETCH:    PC=0x0000000c  Instr=0x00730e33  | GSHARE: GHR=01111111 Hash=01111100 PHT=01 PredTaken=0 PredTgt=0x00000000
DECODE:   PC=0x00000008  Instr=0x007302b3  rs1= 6 rs2= 7 rd= 5
EXECUTE:  PC=0x00000000  ALUout=0x00000000  Zero=1 | MISPREDICT=0 ActualTgt=0x00000000
MEMORY:   ALUres=0x00000000  rd= 0
WRITEBACK:Result=0x00000000  RegWrite=0  rd=25
HAZARD:   StallF=0 StallD=0 FlushD=0 FlushE=0
STATS:    Branches Resolved: 7 | Mispredicts: 7 | ACCURACY: 0.00%
REGS:     t0(x5)=0x00000007  t1(x6)=0x00000003  t2(x7)=0x00000004  t3(x28)=0x00000007
--------------------------------------------------------------
Time: 410000 ns
